E:\DAM\DAM-2\PSP\EVALUACION-1\T2- Programacion Multihilo\EJERCICIOS\Refuerzo\Refuerzo\src\main\java\com\cafeconpalito\refuerzo\Hilo1.java
E:\DAM\DAM-2\PSP\EVALUACION-1\T2- Programacion Multihilo\EJERCICIOS\Refuerzo\Refuerzo\src\main\java\com\cafeconpalito\refuerzo\Hilo2.java
E:\DAM\DAM-2\PSP\EVALUACION-1\T2- Programacion Multihilo\EJERCICIOS\Refuerzo\Refuerzo\src\main\java\com\cafeconpalito\refuerzo\HiloNumeroAleatorio.java
