controllers\Main.class
views\Datos.class
controllers\ControllerLogin.class
views\Login.class
models\ConexionBBDD.class
views\Login$2.class
controllers\ControllerDatos.class
models\Model.class
views\Login$1.class
views\Datos$1.class
views\Login$3.class
