com\cafeconpalito\ejercicio51\Main$3.class
com\cafeconpalito\ejercicio51\Main$1.class
com\cafeconpalito\ejercicio51\Main$2.class
com\cafeconpalito\ejercicio51\ConexionBBDD.class
com\cafeconpalito\ejercicio51\Main.class
